Statistical Computing using R and Python - 14 Data Input
…
You can also write fixed-width files if you really want to:

if (!"gdata" %in% installed.packages()) install.packages("gdata")
library(gdata)
write.fwf(mtcars, file = tempfile())

The readr package creates data-frame like objects called tibbles (a souped-up data frame), but it is much friendlier to use.

library(readr) # Better data importing in R

read_table(url, skip = 2) # Gosh, that was much easier!
## # A tibble: 120 × 24
##    STID   STNM  TIME  RELH   TAIR  WSPD  WVEC  WDIR  WDSD  WSSD  WMAX  RAIN
##    <chr> <dbl> <dbl> <dbl>  <dbl> <dbl> <dbl> <dbl> <dbl> <dbl> <dbl> <dbl>
##  1 ACME    110     0    60   29.9   4.4   4.3   111   9     0.8   6.4   0  
##  2 ADAX      1     0    69   29.3   1.7   1.6    98  24.9   0.6   3.4   0  
##  3 ALTU      2     0    52   31.7   5.5   5.4    89   7.6   1     7.8   0  
##  4 ALV2    116     0    57   30.1   2.5   2.4   108  10.3   0.5   3.6  55.6
##  5 ANT2    135     0    75   29.1   1.1   1.1    44  21.1   0.3   2     0  
##  6 APAC    111     0    58   29.9   5.1   5.1   107   8.5   0.7   6.6   0  
##  7 ARD2    126     0    61   31.2   3.3   3.2   109   9.1   0.6   4.3   0  
##  8 ARNE      6     0    49   30.4   4.5   4.4   111  11.1   0.9   6.4   0  
##  9 BEAV      8     0    42   30.5   6.1   6     127   8.7   0.9   7.9   0  
## 10 BESS      9     0    53 -999     5.3   5.2   115   8.6   0.6   7     0  
## # … with 110 more rows, and 12 more variables: PRES <dbl>, SRAD <dbl>,
## #   TA9M <dbl>, WS2M <dbl>, TS10 <dbl>, TB10 <dbl>, TS05 <dbl>, TS25 <dbl>,
## #   TS60 <dbl>, TR05 <dbl>, TR25 <dbl>, TR60 <dbl>
…
