Statistical Computing using R and Python - 17 Data Cleaning
…
Let’s explore how it works, using the starwars dataset, which contains a comprehensive list of the characters in the Star Wars movies.

In the interests of demonstrating the process on the same data, I’ve exported the starwars data to a CSV file using the readr package. I had to remove the list-columns (films, vehicles, starships) because that format isn’t supported by CSV files. You can access the csv data here.

R

Python

This data set is included in the dplyr package, so we load that package and then use the data() function to load dataset into memory. The loading isn’t complete until we actually use the dataset though… so let’s print the first few rows.

library(dplyr)
data(starwars)
starwars
## # A tibble: 87 × 14
##    name        height  mass hair_…¹ skin_…² eye_c…³ birth…⁴ sex   gender homew…⁵
##    <chr>        <int> <dbl> <chr>   <chr>   <chr>     <dbl> <chr> <chr>  <chr>  
##  1 Luke Skywa…    172    77 blond   fair    blue       19   male  mascu… Tatooi…
##  2 C-3PO          167    75 <NA>    gold    yellow    112   none  mascu… Tatooi…
##  3 R2-D2           96    32 <NA>    white,… red        33   none  mascu… Naboo  
##  4 Darth Vader    202   136 none    white   yellow     41.9 male  mascu… Tatooi…
##  5 Leia Organa    150    49 brown   light   brown      19   fema… femin… Aldera…
##  6 Owen Lars      178   120 brown,… light   blue       52   male  mascu… Tatooi…
##  7 Beru White…    165    75 brown   light   blue       47   fema… femin… Tatooi…
##  8 R5-D4           97    32 <NA>    white,… red        NA   none  mascu… Tatooi…
##  9 Biggs Dark…    183    84 black   light   brown      24   male  mascu… Tatooi…
## 10 Obi-Wan Ke…    182    77 auburn… fair    blue-g…    57   male  mascu… Stewjon
## # … with 77 more rows, 4 more variables: species <chr>, films <list>,
## #   vehicles <list>, starships <list>, and abbreviated variable names
## #   ¹​hair_color, ²​skin_color, ³​eye_color, ⁴​birth_year, ⁵​homeworld
…
Once the data is set up, filtering the data (selecting certain rows) is actually very simple. Of course, we’ve talked about how to use logical indexing before in Section 9.4.1, but here we’ll focus on using specific functions to perform the same operation.

R: dplyr

Python

Base R

The dplyr verb for selecting rows is filter. filter takes a set of one or more logical conditions, using bare column names and logical operators. Each provided condition is combined using AND.

# Get only the people
filter(starwars, species == "Human")
## # A tibble: 35 × 14
##    name        height  mass hair_…¹ skin_…² eye_c…³ birth…⁴ sex   gender homew…⁵
##    <chr>        <int> <dbl> <chr>   <chr>   <chr>     <dbl> <chr> <chr>  <chr>  
##  1 Luke Skywa…    172    77 blond   fair    blue       19   male  mascu… Tatooi…
##  2 Darth Vader    202   136 none    white   yellow     41.9 male  mascu… Tatooi…
##  3 Leia Organa    150    49 brown   light   brown      19   fema… femin… Aldera…
##  4 Owen Lars      178   120 brown,… light   blue       52   male  mascu… Tatooi…
##  5 Beru White…    165    75 brown   light   blue       47   fema… femin… Tatooi…
##  6 Biggs Dark…    183    84 black   light   brown      24   male  mascu… Tatooi…
##  7 Obi-Wan Ke…    182    77 auburn… fair    blue-g…    57   male  mascu… Stewjon
##  8 Anakin Sky…    188    84 blond   fair    blue       41.9 male  mascu… Tatooi…
##  9 Wilhuff Ta…    180    NA auburn… fair    blue       64   male  mascu… Eriadu 
## 10 Han Solo       180    80 brown   fair    brown      29   male  mascu… Corell…
## # … with 25 more rows, 4 more variables: species <chr>, films <list>,
## #   vehicles <list>, starships <list>, and abbreviated variable names
## #   ¹​hair_color, ²​skin_color, ³​eye_color, ⁴​birth_year, ⁵​homeworld
…
In base R, you would perform a filtering operation using subset

# Get only the people
subset(starwars, species == "Human")
## # A tibble: 35 × 14
##    name        height  mass hair_…¹ skin_…² eye_c…³ birth…⁴ sex   gender homew…⁵
##    <chr>        <int> <dbl> <chr>   <chr>   <chr>     <dbl> <chr> <chr>  <chr>  
##  1 Luke Skywa…    172    77 blond   fair    blue       19   male  mascu… Tatooi…
##  2 Darth Vader    202   136 none    white   yellow     41.9 male  mascu… Tatooi…
##  3 Leia Organa    150    49 brown   light   brown      19   fema… femin… Aldera…
##  4 Owen Lars      178   120 brown,… light   blue       52   male  mascu… Tatooi…
##  5 Beru White…    165    75 brown   light   blue       47   fema… femin… Tatooi…
##  6 Biggs Dark…    183    84 black   light   brown      24   male  mascu… Tatooi…
##  7 Obi-Wan Ke…    182    77 auburn… fair    blue-g…    57   male  mascu… Stewjon
##  8 Anakin Sky…    188    84 blond   fair    blue       41.9 male  mascu… Tatooi…
##  9 Wilhuff Ta…    180    NA auburn… fair    blue       64   male  mascu… Eriadu 
## 10 Han Solo       180    80 brown   fair    brown      29   male  mascu… Corell…
## # … with 25 more rows, 4 more variables: species <chr>, films <list>,
## #   vehicles <list>, starships <list>, and abbreviated variable names
## #   ¹​hair_color, ²​skin_color, ³​eye_color, ⁴​birth_year, ⁵​homeworld
…
We’ll start out with the nycflights13 package, which contains information on all flights that left a NYC airport to destinations in the US, Puerto Rico, and the US Virgin Islands.

Tip

You might want to try out your EDA (Exploratory Data Analysis) skills to see what you can find out about the dataset, before seeing how select() works.

We could get a data frame of departure information for each flight:

select(flights, flight, year:day, tailnum, origin, matches("dep"))
## # A tibble: 336,776 × 9
##    flight  year month   day tailnum origin dep_time sched_dep_time dep_delay
##     <int> <int> <int> <int> <chr>   <chr>     <int>          <int>     <dbl>
##  1   1545  2013     1     1 N14228  EWR         517            515         2
##  2   1714  2013     1     1 N24211  LGA         533            529         4
##  3   1141  2013     1     1 N619AA  JFK         542            540         2
##  4    725  2013     1     1 N804JB  JFK         544            545        -1
##  5    461  2013     1     1 N668DN  LGA         554            600        -6
##  6   1696  2013     1     1 N39463  EWR         554            558        -4
##  7    507  2013     1     1 N516JB  EWR         555            600        -5
##  8   5708  2013     1     1 N829AS  LGA         557            600        -3
##  9     79  2013     1     1 N593JB  JFK         557            600        -3
## 10    301  2013     1     1 N3ALAA  LGA         558            600        -2
## # … with 336,766 more rows

Perhaps we want the plane and flight ID information to be the first columns:

flights %>%
  select(carrier:dest, everything())
## # A tibble: 336,776 × 19
##    carrier flight tailnum origin dest   year month   day dep_t…¹ sched…² dep_d…³
##    <chr>    <int> <chr>   <chr>  <chr> <int> <int> <int>   <int>   <int>   <dbl>
##  1 UA        1545 N14228  EWR    IAH    2013     1     1     517     515       2
##  2 UA        1714 N24211  LGA    IAH    2013     1     1     533     529       4
##  3 AA        1141 N619AA  JFK    MIA    2013     1     1     542     540       2
##  4 B6         725 N804JB  JFK    BQN    2013     1     1     544     545      -1
##  5 DL         461 N668DN  LGA    ATL    2013     1     1     554     600      -6
##  6 UA        1696 N39463  EWR    ORD    2013     1     1     554     558      -4
##  7 B6         507 N516JB  EWR    FLL    2013     1     1     555     600      -5
##  8 EV        5708 N829AS  LGA    IAD    2013     1     1     557     600      -3
##  9 B6          79 N593JB  JFK    MCO    2013     1     1     557     600      -3
## 10 AA         301 N3ALAA  LGA    ORD    2013     1     1     558     600      -2
## # … with 336,766 more rows, 8 more variables: arr_time <int>,
## #   sched_arr_time <int>, arr_delay <dbl>, air_time <dbl>, distance <dbl>,
## #   hour <dbl>, minute <dbl>, time_hour <dttm>, and abbreviated variable names
## #   ¹​dep_time, ²​sched_dep_time, ³​dep_delay

Note that everything() won’t duplicate columns you’ve already added.

Exploring the difference between bare name selection and all_of()/any_of()

flights %>%
  select(carrier, flight, tailnum, matches("time"))
## # A tibble: 336,776 × 9
##    carrier flight tailnum dep_time sched_dep_time arr_time sched_arr_t…¹ air_t…²
##    <chr>    <int> <chr>      <int>          <int>    <int>         <int>   <dbl>
##  1 UA        1545 N14228       517            515      830           819     227
##  2 UA        1714 N24211       533            529      850           830     227
##  3 AA        1141 N619AA       542            540      923           850     160
##  4 B6         725 N804JB       544            545     1004          1022     183
##  5 DL         461 N668DN       554            600      812           837     116
##  6 UA        1696 N39463       554            558      740           728     150
##  7 B6         507 N516JB       555            600      913           854     158
##  8 EV        5708 N829AS       557            600      709           723      53
##  9 B6          79 N593JB       557            600      838           846     140
## 10 AA         301 N3ALAA       558            600      753           745     138
## # … with 336,766 more rows, 1 more variable: time_hour <dttm>, and abbreviated
## #   variable names ¹​sched_arr_time, ²​air_time

varlist <- c("carrier", "flight", "tailnum",
             "dep_time", "sched_dep_time", "arr_time", "sched_arr_time",
             "air_time")

flights %>%
  select(all_of(varlist))
## # A tibble: 336,776 × 8
##    carrier flight tailnum dep_time sched_dep_time arr_time sched_arr_t…¹ air_t…²
##    <chr>    <int> <chr>      <int>          <int>    <int>         <int>   <dbl>
##  1 UA        1545 N14228       517            515      830           819     227
##  2 UA        1714 N24211       533            529      850           830     227
##  3 AA        1141 N619AA       542            540      923           850     160
##  4 B6         725 N804JB       544            545     1004          1022     183
##  5 DL         461 N668DN       554            600      812           837     116
##  6 UA        1696 N39463       554            558      740           728     150
##  7 B6         507 N516JB       555            600      913           854     158
##  8 EV        5708 N829AS       557            600      709           723      53
##  9 B6          79 N593JB       557            600      838           846     140
## 10 AA         301 N3ALAA       558            600      753           745     138
## # … with 336,766 more rows, and abbreviated variable names ¹​sched_arr_time,
## #   ²​air_time

varlist <- c(varlist, "whoops")

flights %>%
  select(all_of(varlist)) # this errors out b/c whoops doesn't exist
## Error in `select()`:
## ! Problem while evaluating `all_of(varlist)`.

flights %>%
select(any_of(varlist)) # this runs just fine
## # A tibble: 336,776 × 8
##    carrier flight tailnum dep_time sched_dep_time arr_time sched_arr_t…¹ air_t…²
##    <chr>    <int> <chr>      <int>          <int>    <int>         <int>   <dbl>
##  1 UA        1545 N14228       517            515      830           819     227
##  2 UA        1714 N24211       533            529      850           830     227
##  3 AA        1141 N619AA       542            540      923           850     160
##  4 B6         725 N804JB       544            545     1004          1022     183
##  5 DL         461 N668DN       554            600      812           837     116
##  6 UA        1696 N39463       554            558      740           728     150
##  7 B6         507 N516JB       555            600      913           854     158
##  8 EV        5708 N829AS       557            600      709           723      53
##  9 B6          79 N593JB       557            600      838           846     140
## 10 AA         301 N3ALAA       558            600      753           745     138
## # … with 336,766 more rows, and abbreviated variable names ¹​sched_arr_time,
## #   ²​air_time
…
In base R, we typically select columns by name or index directly. This is nowhere near as convenient, of course, but there are little shorthand ways to replicate the functionality of e.g. matches in dplyr.

grepl is a shorthand function for grep, which searches for a pattern in a vector of strings. grepl returns a logical vector indicating whether the pattern ("dep", in this case) was found in the vector (names(flights), in this case).

depcols <- names(flights)[grepl("dep", names(flights))]
collist <- c("flight", "year", "month", "day", "tailnum", "origin", depcols)

flights[,collist]
## # A tibble: 336,776 × 9
##    flight  year month   day tailnum origin dep_time sched_dep_time dep_delay
##     <int> <int> <int> <int> <chr>   <chr>     <int>          <int>     <dbl>
##  1   1545  2013     1     1 N14228  EWR         517            515         2
##  2   1714  2013     1     1 N24211  LGA         533            529         4
##  3   1141  2013     1     1 N619AA  JFK         542            540         2
##  4    725  2013     1     1 N804JB  JFK         544            545        -1
##  5    461  2013     1     1 N668DN  LGA         554            600        -6
##  6   1696  2013     1     1 N39463  EWR         554            558        -4
##  7    507  2013     1     1 N516JB  EWR         555            600        -5
##  8   5708  2013     1     1 N829AS  LGA         557            600        -3
##  9     79  2013     1     1 N593JB  JFK         557            600        -3
## 10    301  2013     1     1 N3ALAA  LGA         558            600        -2
## # … with 336,766 more rows

Perhaps we want the plane and flight ID information to be the first columns:

new_order <- names(flights)
new_order <- new_order[c(10:14, 1:9, 15:19)]

flights[,new_order]
## # A tibble: 336,776 × 19
##    carrier flight tailnum origin dest   year month   day dep_t…¹ sched…² dep_d…³
##    <chr>    <int> <chr>   <chr>  <chr> <int> <int> <int>   <int>   <int>   <dbl>
##  1 UA        1545 N14228  EWR    IAH    2013     1     1     517     515       2
##  2 UA        1714 N24211  LGA    IAH    2013     1     1     533     529       4
##  3 AA        1141 N619AA  JFK    MIA    2013     1     1     542     540       2
##  4 B6         725 N804JB  JFK    BQN    2013     1     1     544     545      -1
##  5 DL         461 N668DN  LGA    ATL    2013     1     1     554     600      -6
##  6 UA        1696 N39463  EWR    ORD    2013     1     1     554     558      -4
##  7 B6         507 N516JB  EWR    FLL    2013     1     1     555     600      -5
##  8 EV        5708 N829AS  LGA    IAD    2013     1     1     557     600      -3
##  9 B6          79 N593JB  JFK    MCO    2013     1     1     557     600      -3
## 10 AA         301 N3ALAA  LGA    ORD    2013     1     1     558     600      -2
## # … with 336,766 more rows, 8 more variables: arr_time <int>,
## #   sched_arr_time <int>, arr_delay <dbl>, air_time <dbl>, distance <dbl>,
## #   hour <dbl>, minute <dbl>, time_hour <dttm>, and abbreviated variable names
## #   ¹​dep_time, ²​sched_dep_time, ³​dep_delay
…
relocate lets you rearrange columns (by Allison Horst)

# Move flight specific info to the front
data(flights, package = "nycflights13")
relocate(flights, carrier:dest, everything())
## # A tibble: 336,776 × 19
##    carrier flight tailnum origin dest   year month   day dep_t…¹ sched…² dep_d…³
##    <chr>    <int> <chr>   <chr>  <chr> <int> <int> <int>   <int>   <int>   <dbl>
##  1 UA        1545 N14228  EWR    IAH    2013     1     1     517     515       2
##  2 UA        1714 N24211  LGA    IAH    2013     1     1     533     529       4
##  3 AA        1141 N619AA  JFK    MIA    2013     1     1     542     540       2
##  4 B6         725 N804JB  JFK    BQN    2013     1     1     544     545      -1
##  5 DL         461 N668DN  LGA    ATL    2013     1     1     554     600      -6
##  6 UA        1696 N39463  EWR    ORD    2013     1     1     554     558      -4
##  7 B6         507 N516JB  EWR    FLL    2013     1     1     555     600      -5
##  8 EV        5708 N829AS  LGA    IAD    2013     1     1     557     600      -3
##  9 B6          79 N593JB  JFK    MCO    2013     1     1     557     600      -3
## 10 AA         301 N3ALAA  LGA    ORD    2013     1     1     558     600      -2
## # … with 336,766 more rows, 8 more variables: arr_time <int>,
## #   sched_arr_time <int>, arr_delay <dbl>, air_time <dbl>, distance <dbl>,
## #   hour <dbl>, minute <dbl>, time_hour <dttm>, and abbreviated variable names
## #   ¹​dep_time, ²​sched_dep_time, ³​dep_delay

# move numeric variables to the front
flights %>% relocate(where(is.numeric))
## # A tibble: 336,776 × 19
##     year month   day dep_time sched_dep…¹ dep_d…² arr_t…³ sched…⁴ arr_d…⁵ flight
##    <int> <int> <int>    <int>       <int>   <dbl>   <int>   <int>   <dbl>  <int>
##  1  2013     1     1      517         515       2     830     819      11   1545
##  2  2013     1     1      533         529       4     850     830      20   1714
##  3  2013     1     1      542         540       2     923     850      33   1141
##  4  2013     1     1      544         545      -1    1004    1022     -18    725
##  5  2013     1     1      554         600      -6     812     837     -25    461
##  6  2013     1     1      554         558      -4     740     728      12   1696
##  7  2013     1     1      555         600      -5     913     854      19    507
##  8  2013     1     1      557         600      -3     709     723     -14   5708
##  9  2013     1     1      557         600      -3     838     846      -8     79
## 10  2013     1     1      558         600      -2     753     745       8    301
## # … with 336,766 more rows, 9 more variables: air_time <dbl>, distance <dbl>,
## #   hour <dbl>, minute <dbl>, carrier <chr>, tailnum <chr>, origin <chr>,
## #   dest <chr>, time_hour <dttm>, and abbreviated variable names
## #   ¹​sched_dep_time, ²​dep_delay, ³​arr_time, ⁴​sched_arr_time, ⁵​arr_delay
…
The ungroup() command is just as important as the group_by() command! (by Allison Horst)

Storms Example

Let’s try a non-trivial example, using the storms dataset that is part of the dplyr package.

R

Python

library(dplyr)
library(lubridate) # for the make_datetime() function
data(storms)
storms
## # A tibble: 11,859 × 13
##    name   year month   day  hour   lat  long status        categ…¹  wind press…²
##    <chr> <dbl> <dbl> <int> <dbl> <dbl> <dbl> <chr>         <ord>   <int>   <int>
##  1 Amy    1975     6    27     0  27.5 -79   tropical dep… -1         25    1013
##  2 Amy    1975     6    27     6  28.5 -79   tropical dep… -1         25    1013
##  3 Amy    1975     6    27    12  29.5 -79   tropical dep… -1         25    1013
##  4 Amy    1975     6    27    18  30.5 -79   tropical dep… -1         25    1013
##  5 Amy    1975     6    28     0  31.5 -78.8 tropical dep… -1         25    1012
##  6 Amy    1975     6    28     6  32.4 -78.7 tropical dep… -1         25    1012
##  7 Amy    1975     6    28    12  33.3 -78   tropical dep… -1         25    1011
##  8 Amy    1975     6    28    18  34   -77   tropical dep… -1         30    1006
##  9 Amy    1975     6    29     0  34.4 -75.8 tropical sto… 0          35    1004
## 10 Amy    1975     6    29     6  34   -74.8 tropical sto… 0          40    1002
## # … with 11,849 more rows, 2 more variables:
## #   tropicalstorm_force_diameter <int>, hurricane_force_diameter <int>, and
## #   abbreviated variable names ¹​category, ²​pressure
…
