25 Normal Forms of Data – Statistical Computing using R and Python
…
25.3 Second Normal Form

A data set is in second normal form if

it is in first normal form, and

all non-key variables depend on all parts of the key (no split key).

Note, that tables in 1st normal form with a single key variable are automatically in 2nd normal form.

Regarding the example of the wallaby dataset, we see the dataset in its basic form is not in 2nd normal form, because the two non-key variables Sex (biological sex of the animal) and the animal’s location (Loca) only depend on the animal number Anim, and not on the Age variable.

wallaby2 |> group_by(Anim) 
## # A tibble: 78 × 4
## # Groups:   Anim [77]
##     Anim   Sex Loca  measurements     
##    <int> <int> <chr> <list>           
##  1    45     1 G     <tibble [49 × 9]>
##  2    47     1 G     <tibble [49 × 9]>
##  3    53     2 G     <tibble [50 × 9]>
##  4    57     2 G     <tibble [49 × 9]>
##  5    65     2 G     <tibble [42 × 9]>
##  6    79     2 K     <tibble [39 × 9]>
##  7    81     2 K     <tibble [36 × 9]>
##  8    87     1 G     <tibble [34 × 9]>
##  9    92     2 G     <tibble [28 × 9]>
## 10    93     2 W     <tibble [28 × 9]>
## # ℹ 68 more rows
…
