28 Dates and Times – Statistical Computing using R and Python
…
flights <- flights %>%
  mutate(date = make_date(year, month, day),
         datetime = make_datetime(year, month, day, hour, minute))

flights %>% select(date, datetime, year, month, day, hour, minute)
## # A tibble: 336,776 × 7
##    date       datetime             year month   day  hour minute
##    <date>     <dttm>              <int> <int> <int> <dbl>  <dbl>
##  1 2013-01-01 2013-01-01 05:15:00  2013     1     1     5     15
##  2 2013-01-01 2013-01-01 05:29:00  2013     1     1     5     29
##  3 2013-01-01 2013-01-01 05:40:00  2013     1     1     5     40
##  4 2013-01-01 2013-01-01 05:45:00  2013     1     1     5     45
##  5 2013-01-01 2013-01-01 06:00:00  2013     1     1     6      0
##  6 2013-01-01 2013-01-01 05:58:00  2013     1     1     5     58
##  7 2013-01-01 2013-01-01 06:00:00  2013     1     1     6      0
##  8 2013-01-01 2013-01-01 06:00:00  2013     1     1     6      0
##  9 2013-01-01 2013-01-01 06:00:00  2013     1     1     6      0
## 10 2013-01-01 2013-01-01 06:00:00  2013     1     1     6      0
## # ℹ 336,766 more rows
…
Can you get R or Python to output the date in your timezone?

watercolour <- watercolour %>%
  mutate(date = ymd(date_utc, tz = "UTC"),
         time = as_datetime(timestamp),
         time_cst = with_tz(time, tzone_out = "CST"))

watercolour[,c("date", "time", "time_cst")]
## # A tibble: 959 × 3
##    date                time                time_cst           
##    <dttm>              <dttm>              <dttm>             
##  1 2017-12-19 00:00:00 2017-12-19 22:08:19 2017-12-19 16:08:19
##  2 2017-12-19 00:00:00 2017-12-19 22:07:03 2017-12-19 16:07:03
##  3 2017-12-19 00:00:00 2017-12-19 20:47:55 2017-12-19 14:47:55
##  4 2017-12-19 00:00:00 2017-12-19 20:01:19 2017-12-19 14:01:19
##  5 2017-12-17 00:00:00 2017-12-17 19:58:51 2017-12-17 13:58:51
##  6 2017-12-15 00:00:00 2017-12-15 02:53:23 2017-12-14 20:53:23
##  7 2017-12-12 00:00:00 2017-12-12 16:56:23 2017-12-12 10:56:23
##  8 2017-12-08 00:00:00 2017-12-08 17:48:05 2017-12-08 11:48:05
##  9 2017-12-08 00:00:00 2017-12-08 03:50:17 2017-12-07 21:50:17
## 10 2017-12-07 00:00:00 2017-12-07 18:00:58 2017-12-07 12:00:58
## # ℹ 949 more rows
…
