27 Functional Programming – Statistical Computing using R and Python
…
Ok, so that actually worked, but only because the structure of the crew data is the same as the structure of the cast data.

It’s good to see what we’d have to do manually if fromJSON() failed on us. It’s also an excellent example of functional programming in a practical setting.

Let’s finish this up by converting our cast and crew data frames into a single data frame with a variable indicating which source DF is relevant.

patrick_stewart_movies <- bind_rows(
  mutate(cast_list, role = "cast"),
  mutate(crew_list, role = "crew")
)
patrick_stewart_movies %>%
  arrange(id)
## # A tibble: 156 × 20
##    adult backdrop_path              id original_language original_title overview
##    <lgl> <chr>                   <int> <chr>             <chr>          <chr>   
##  1 FALSE /mNdsbVuRdsyo8eitW2IBW…   193 en                Star Trek: Ge… "Captai…
##  2 FALSE /wygUDDRNpeKUnkekRGeLC…   199 en                Star Trek: Fi… "The Bo…
##  3 FALSE /vsjuHP9RQZJgYUvvSlO3m…   200 en                Star Trek: In… "When a…
##  4 FALSE /vsjuHP9RQZJgYUvvSlO3m…   200 en                Star Trek: In… "When a…
##  5 FALSE /6z9w8eidKWDDXwZNSVNaR…   201 en                Star Trek: Ne… "En rou…
##  6 FALSE /2mEXtIjgsoe5uqH70CLps…   815 en                Animal Farm    "An ani…
##  7 FALSE /5wJ2tckpvwcxGCAgZicco…   841 en                Dune           "In the…
##  8 FALSE /92mpNNg6v2PN2HN2C2Z4g…  1273 en                TMNT           "After …
##  9 FALSE /wvqdJLVh0mSblly7UnYFP…  2080 en                X-Men Origins… "After …
## 10 FALSE /hPDv0O8tvbEvcVVphIieS…  2107 en                L.A. Story     "With t…
## # ℹ 146 more rows
## # ℹ 14 more variables: popularity <dbl>, poster_path <chr>, release_date <chr>,
## #   title <chr>, video <lgl>, vote_average <dbl>, vote_count <int>,
## #   character <chr>, credit_id <chr>, order <int>, genre_ids <list>,
## #   role <chr>, department <chr>, job <chr>
…
