29 Simulation and Reproducibility – Statistical Computing using R and Python
…
head(sim)
## # A tibble: 6 × 2
##      id data             
##   <int> <list>           
## 1     1 <tibble [25 × 2]>
## 2     2 <tibble [25 × 2]>
## 3     3 <tibble [25 × 2]>
## 4     4 <tibble [25 × 2]>
## 5     5 <tibble [25 × 2]>
## 6     6 <tibble [25 × 2]>
sim$data[[1]]
## # A tibble: 25 × 2
##        x    ln_x
##    <dbl>   <dbl>
##  1 0.310 -1.17  
##  2 0.622 -0.475 
##  3 0.303 -1.19  
##  4 1.05   0.0525
##  5 0.529 -0.636 
##  6 1.09   0.0891
##  7 1.97   0.676 
##  8 8.94   2.19  
##  9 0.598 -0.514 
## 10 0.183 -1.70  
## # ℹ 15 more rows
…
