33 Web Scraping – Statistical Computing using R and Python
…
An iframe allows you to include another web page inside the current webpage. In this case, we can see that this iframe is showing us a google sheet, rendered as a table. In theory, we could use the googlesheets4 package to read in the sheet, but html_table should work just as well.

It can be helpful to know a bit about how URLs are constructed in order to simplify this URL a bit. Additional key-value information is often added to the end of a URL, separated from the main part of the URL by a ?. So, all of the information after the question mark in the iframe src attribute is not necessary for our purposes.

R
Python

players <- read_html("https://docs.google.com/spreadsheets/d/e/2PACX-1vSZPNZu2hhBDjnxWH58quhER6anponm1YCl512tHLTcURYUDzCXWqT7sNy7S_wcDKy8Wnoj4VNaAYyh/pubhtml") |>
html_table()

length(players)
## [1] 64
players[[2]]
## # A tibble: 48 × 9
##       `` ``       `` ``                            ``    ``    ``    ``    ``   
##    <int> <lgl> <int> <chr>                         <chr> <chr> <lgl> <chr> <chr>
##  1     1 NA       NA ""                            ""    ""    NA    ""    ""   
##  2     2 NA       NA "CURRENT ACTIVE CHARTER ROST… "CUR… "CUR… NA    "LEA… "Ad …
##  3     3 NA       NA "CURRENT ACTIVE CHARTER ROST… "CUR… "CUR… NA    "TEA… "Ad …
##  4     4 NA       NA "Skater Number"               "Ska… "Act… NA    "DIV… "FEM…
##  5     5 NA        1 "011"                         "Wic… "4/1… NA    ""    ""   
##  6     6 NA        2 "02"                          "Ken… "4/1… NA    "UNI… "WHI…
##  7     7 NA        3 "09"                          "Sas… "4/1… NA    ""    "BLU…
##  8     8 NA        4 "092"                         "Poc… "4/1… NA    ""    ""   
##  9     9 NA        5 "101"                         "Slu… "4/1… NA    "COA… "COA…
## 10    10 NA        6 "112"                         "Gna… "4/1… NA    "Leg… "Der…
## # ℹ 38 more rows
…
