36 Working with PDFs – Statistical Computing using R and Python
…
6  paste0(modifiers, vars)
}

7headers_fixed = map(headers, fix_headers)

library(magrittr)
8tables <- map2(tables, headers_fixed, ~set_names(.x, .y))

tables[[1]]
## # A tibble: 41 × 10
##    Expenditure_category      Rel_imp.Nov2023 Unadj_idx.Dec2022 Unadj_idx.Nov2023
##    <chr>                               <dbl>             <dbl>             <dbl>
##  1 All items.. . . . . . . …          100                 297.              307.
##  2 Food.. . . . . . . . . .…           13.4               317.              325.
##  3 Food at home.. . . . . .…            8.55              299.              303.
##  4 Cereals and bakery produ…            1.16              345.              356.
##  5 Meats, poultry, fish, an…            1.78              320.              320.
##  6 Dairy and related produc…            0.78              271.              268.
##  7 Fruits and vegetables. .…            1.47              349.              351.
##  8 Nonalcoholic beverages a…           NA                  NA                NA 
##  9 materials. . . . . . . .…            1.03              210.              216.
## 10 Other food at home.. . .…            2.33              263.              270.
## # ℹ 31 more rows
## # ℹ 6 more variables: Unadj_idx.Dec2023 <dbl>,
## #   Unadj_pct_chg.Dec2022_Dec2023 <dbl>, Unadj_pct_chg.Nov2023_Dec2023 <dbl>,
## #   Seas_adj_pct_chg.Sep2023_Oct2023 <dbl>,
## #   Seas_adj_pct_chg.Oct2023_Nov2023 <dbl>,
## #   Seas_adj_pct_chg.Nov2023_Dec2023 <dbl>
…
cpi_data <- cpi_data |>
6  bind_rows() |>
  mutate(Expenditure_category = str_remove_all(Expenditure_category, "[\\. ]{1,}$") |>
7           str_trim())

dim(cpi_data)
cpi_data
## [1] 6601    7
## # A tibble: 6,601 × 7
##    Expenditure_category report_date vardate      Rel_imp Unadj_idx Unadj_pct_chg
##    <chr>                <date>      <chr>          <dbl>     <dbl>         <dbl>
##  1 All items            2024-01-11  Nov2023        100        307.          NA  
##  2 All items            2024-01-11  Dec2022         NA        297.          NA  
##  3 All items            2024-01-11  Dec2023         NA        307.          NA  
##  4 All items            2024-01-11  Dec2022_Dec…    NA         NA            3.4
##  5 All items            2024-01-11  Nov2023_Dec…    NA         NA           -0.1
##  6 All items            2024-01-11  Sep2023_Oct…    NA         NA           NA  
##  7 All items            2024-01-11  Oct2023_Nov…    NA         NA           NA  
##  8 Food                 2024-01-11  Nov2023         13.4      325.          NA  
##  9 Food                 2024-01-11  Dec2022         NA        317.          NA  
## 10 Food                 2024-01-11  Dec2023         NA        325.          NA  
## # ℹ 6,591 more rows
## # ℹ 1 more variable: Seas_adj_pct_chg <dbl>
…
